{
  "description": "Gyroscope Z-axis",
  "observationType": "http://www.opengis.net/def/observationType/OGC-OM/2.0/OM_Measurement",
  "unitOfMeasurement": {
    "symbol": "Degree/sec",
    "name": "Degree per second",
    "definition": "http://dbpedia.org/page/Degree_per_second"
  },
  "ObservedProperty": {
    "description": "The rate of change of angular displacement.",
    "definition": "http://dbpedia.org/page/Angular_velocity",
    "name": "Angular velocity"
  }
}
